starttime	seconds	ctime	dtime	ttime	wait
Sat Nov 12 11:05:39 2016	1478955939	153	155	308	155
Sat Nov 12 11:05:39 2016	1478955939	161	155	316	155
Sat Nov 12 11:05:39 2016	1478955939	168	155	323	155
Sat Nov 12 11:05:39 2016	1478955939	164	167	331	166
Sat Nov 12 11:05:39 2016	1478955939	171	166	336	165
Sat Nov 12 11:05:39 2016	1478955939	165	172	336	172
Sat Nov 12 11:05:39 2016	1478955939	174	165	339	165
Sat Nov 12 11:05:39 2016	1478955939	177	165	342	165
